digraph visited_states {
graph [nodesep=1.5, ranksep=1.5];
root [shape=invtriangle, color="#99BF38", fontsize=12, penwidth=2, label="root"];

root -> 0 [style = dotted, color = black, label="INITIALISATION({})", fontsize=12];

0 [shape=box, color="#99BF38", fontsize=12, penwidth=2, label="db = {}"];

0 -> 1 [color = "#006391", label="add(Code1,Name1)", fontsize=12];
0 -> 2 [color = "#006391", label="add(Code1,Name2)", fontsize=12];
0 -> 3 [color = "#006391", label="add(Code1,Name3)", fontsize=12];
0 -> 4 [color = "#006391", label="add(Code2,Name1)", fontsize=12];
0 -> 5 [color = "#006391", label="add(Code2,Name2)", fontsize=12];
0 -> 6 [color = "#006391", label="add(Code2,Name3)", fontsize=12];

1 [shape=doubleoctagon, color="#99BF38", fontsize=12, penwidth=2, label="db(Name1) = Code1"];

1 -> 7 [color = "#006391", label="add(Code1,Name2)", fontsize=12];
1 -> 8 [color = "#006391", label="add(Code1,Name3)", fontsize=12];
1 -> 9 [color = "#006391", label="add(Code2,Name2)", fontsize=12];
1 -> 10 [color = "#006391", label="add(Code2,Name3)", fontsize=12];
1 -> 1 [color = "#006391", label="update(Name1,Code1)", fontsize=12];
1 -> 4 [color = "#006391", label="update(Name1,Code2)", fontsize=12];

2 [shape=box, color="#99BF38", fontsize=12, penwidth=2, label="db(Name2) = Code1"];

2 -> 7 [color = "#006391", label="add(Code1,Name1)", fontsize=12];
2 -> 11 [color = "#006391", label="add(Code1,Name3)", fontsize=12];
2 -> 12 [color = "#006391", label="add(Code2,Name1)", fontsize=12];
2 -> 13 [color = "#006391", label="add(Code2,Name3)", fontsize=12];
2 -> 2 [color = "#006391", label="update(Name2,Code1)", fontsize=12];
2 -> 5 [color = "#006391", label="update(Name2,Code2)", fontsize=12];

3 [shape=box, color="#99BF38", fontsize=12, penwidth=2, label="db(Name3) = Code1"];

3 -> 8 [color = "#006391", label="add(Code1,Name1)", fontsize=12];
3 -> 11 [color = "#006391", label="add(Code1,Name2)", fontsize=12];
3 -> 17 [color = "#006391", label="add(Code2,Name1)", fontsize=12];
3 -> 18 [color = "#006391", label="add(Code2,Name2)", fontsize=12];
3 -> 3 [color = "#006391", label="update(Name3,Code1)", fontsize=12];
3 -> 6 [color = "#006391", label="update(Name3,Code2)", fontsize=12];

4 [shape=box, color="#99BF38", fontsize=12, penwidth=2, label="db(Name1) = Code2"];

4 -> 12 [color = "#006391", label="add(Code1,Name2)", fontsize=12];
4 -> 17 [color = "#006391", label="add(Code1,Name3)", fontsize=12];
4 -> 22 [color = "#006391", label="add(Code2,Name2)", fontsize=12];
4 -> 16 [color = "#006391", label="add(Code2,Name3)", fontsize=12];
4 -> 1 [color = "#006391", label="update(Name1,Code1)", fontsize=12];
4 -> 4 [color = "#006391", label="update(Name1,Code2)", fontsize=12];

5 [shape=box, color="#99BF38", fontsize=12, penwidth=2, label="db(Name2) = Code2"];

5 -> 9 [color = "#006391", label="add(Code1,Name1)", fontsize=12];
5 -> 18 [color = "#006391", label="add(Code1,Name3)", fontsize=12];
5 -> 22 [color = "#006391", label="add(Code2,Name1)", fontsize=12];
5 -> 23 [color = "#006391", label="add(Code2,Name3)", fontsize=12];
5 -> 2 [color = "#006391", label="update(Name2,Code1)", fontsize=12];
5 -> 5 [color = "#006391", label="update(Name2,Code2)", fontsize=12];

6 [shape=box, color="#99BF38", fontsize=12, penwidth=2, label="db(Name3) = Code2"];

6 -> 10 [color = "#006391", label="add(Code1,Name1)", fontsize=12];
6 -> 13 [color = "#006391", label="add(Code1,Name2)", fontsize=12];
6 -> 16 [color = "#006391", label="add(Code2,Name1)", fontsize=12];
6 -> 23 [color = "#006391", label="add(Code2,Name2)", fontsize=12];
6 -> 3 [color = "#006391", label="update(Name3,Code1)", fontsize=12];
6 -> 6 [color = "#006391", label="update(Name3,Code2)", fontsize=12];

7 [shape=box, color="#99BF38", fontsize=12, penwidth=2, label="db(Name1) = Code1,db(Name2) = Code1"];

7 -> 24 [color = "#006391", label="add(Code1,Name3)", fontsize=12];
7 -> 14 [color = "#006391", label="add(Code2,Name3)", fontsize=12];
7 -> 7 [color = "#006391", label="update(Name1,Code1)", fontsize=12];
7 -> 12 [color = "#006391", label="update(Name1,Code2)", fontsize=12];
7 -> 7 [color = "#006391", label="update(Name2,Code1)", fontsize=12];
7 -> 9 [color = "#006391", label="update(Name2,Code2)", fontsize=12];

8 [shape=box, color="#99BF38", fontsize=12, penwidth=2, label="db(Name1) = Code1,db(Name3) = Code1"];

8 -> 24 [color = "#006391", label="add(Code1,Name2)", fontsize=12];
8 -> 25 [color = "#006391", label="add(Code2,Name2)", fontsize=12];
8 -> 8 [color = "#006391", label="update(Name1,Code1)", fontsize=12];
8 -> 17 [color = "#006391", label="update(Name1,Code2)", fontsize=12];
8 -> 8 [color = "#006391", label="update(Name3,Code1)", fontsize=12];
8 -> 10 [color = "#006391", label="update(Name3,Code2)", fontsize=12];

9 [shape=box, color="#99BF38", fontsize=12, penwidth=2, label="db(Name1) = Code1,db(Name2) = Code2"];

9 -> 25 [color = "#006391", label="add(Code1,Name3)", fontsize=12];
9 -> 15 [color = "#006391", label="add(Code2,Name3)", fontsize=12];
9 -> 9 [color = "#006391", label="update(Name1,Code1)", fontsize=12];
9 -> 22 [color = "#006391", label="update(Name1,Code2)", fontsize=12];
9 -> 7 [color = "#006391", label="update(Name2,Code1)", fontsize=12];
9 -> 9 [color = "#006391", label="update(Name2,Code2)", fontsize=12];

10 [shape=box, color="#99BF38", fontsize=12, penwidth=2, label="db(Name1) = Code1,db(Name3) = Code2"];

10 -> 14 [color = "#006391", label="add(Code1,Name2)", fontsize=12];
10 -> 15 [color = "#006391", label="add(Code2,Name2)", fontsize=12];
10 -> 10 [color = "#006391", label="update(Name1,Code1)", fontsize=12];
10 -> 16 [color = "#006391", label="update(Name1,Code2)", fontsize=12];
10 -> 8 [color = "#006391", label="update(Name3,Code1)", fontsize=12];
10 -> 10 [color = "#006391", label="update(Name3,Code2)", fontsize=12];

11 [shape=box, color="#99BF38", fontsize=12, penwidth=2, label="db(Name2) = Code1,db(Name3) = Code1"];

11 -> 24 [color = "#006391", label="add(Code1,Name1)", fontsize=12];
11 -> 26 [color = "#006391", label="add(Code2,Name1)", fontsize=12];
11 -> 11 [color = "#006391", label="update(Name2,Code1)", fontsize=12];
11 -> 18 [color = "#006391", label="update(Name2,Code2)", fontsize=12];
11 -> 11 [color = "#006391", label="update(Name3,Code1)", fontsize=12];
11 -> 13 [color = "#006391", label="update(Name3,Code2)", fontsize=12];

12 [shape=box, color="#99BF38", fontsize=12, penwidth=2, label="db(Name1) = Code2,db(Name2) = Code1"];

12 -> 26 [color = "#006391", label="add(Code1,Name3)", fontsize=12];
12 -> 19 [color = "#006391", label="add(Code2,Name3)", fontsize=12];
12 -> 7 [color = "#006391", label="update(Name1,Code1)", fontsize=12];
12 -> 12 [color = "#006391", label="update(Name1,Code2)", fontsize=12];
12 -> 12 [color = "#006391", label="update(Name2,Code1)", fontsize=12];
12 -> 22 [color = "#006391", label="update(Name2,Code2)", fontsize=12];

13 [shape=box, color="#99BF38", fontsize=12, penwidth=2, label="db(Name2) = Code1,db(Name3) = Code2"];

13 -> 14 [color = "#006391", label="add(Code1,Name1)", fontsize=12];
13 -> 19 [color = "#006391", label="add(Code2,Name1)", fontsize=12];
13 -> 13 [color = "#006391", label="update(Name2,Code1)", fontsize=12];
13 -> 23 [color = "#006391", label="update(Name2,Code2)", fontsize=12];
13 -> 11 [color = "#006391", label="update(Name3,Code1)", fontsize=12];
13 -> 13 [color = "#006391", label="update(Name3,Code2)", fontsize=12];

14 [shape=box, color="#99BF38", fontsize=12, penwidth=2, label="db(Name1) = Code1,db(Name2) = Code1,db(Name3) = Code2"];

14 -> 14 [color = "#006391", label="update(Name1,Code1)", fontsize=12];
14 -> 19 [color = "#006391", label="update(Name1,Code2)", fontsize=12];
14 -> 14 [color = "#006391", label="update(Name2,Code1)", fontsize=12];
14 -> 15 [color = "#006391", label="update(Name2,Code2)", fontsize=12];
14 -> 24 [color = "#006391", label="update(Name3,Code1)", fontsize=12];
14 -> 14 [color = "#006391", label="update(Name3,Code2)", fontsize=12];
14 -> 0 [color = "#006391", label="reset", fontsize=12];

15 [shape=box, color="#99BF38", fontsize=12, penwidth=2, label="db(Name1) = Code1,db(Name2) = Code2,db(Name3) = Code2"];

15 -> 15 [color = "#006391", label="update(Name1,Code1)", fontsize=12];
15 -> 20 [color = "#006391", label="update(Name1,Code2)", fontsize=12];
15 -> 14 [color = "#006391", label="update(Name2,Code1)", fontsize=12];
15 -> 15 [color = "#006391", label="update(Name2,Code2)", fontsize=12];
15 -> 25 [color = "#006391", label="update(Name3,Code1)", fontsize=12];
15 -> 15 [color = "#006391", label="update(Name3,Code2)", fontsize=12];
15 -> 0 [color = "#006391", label="reset", fontsize=12];

16 [shape=box, color="#99BF38", fontsize=12, penwidth=2, label="db(Name1) = Code2,db(Name3) = Code2"];

16 -> 19 [color = "#006391", label="add(Code1,Name2)", fontsize=12];
16 -> 20 [color = "#006391", label="add(Code2,Name2)", fontsize=12];
16 -> 10 [color = "#006391", label="update(Name1,Code1)", fontsize=12];
16 -> 16 [color = "#006391", label="update(Name1,Code2)", fontsize=12];
16 -> 17 [color = "#006391", label="update(Name3,Code1)", fontsize=12];
16 -> 16 [color = "#006391", label="update(Name3,Code2)", fontsize=12];

17 [shape=box, color="#99BF38", fontsize=12, penwidth=2, label="db(Name1) = Code2,db(Name3) = Code1"];

17 -> 26 [color = "#006391", label="add(Code1,Name2)", fontsize=12];
17 -> 21 [color = "#006391", label="add(Code2,Name2)", fontsize=12];
17 -> 8 [color = "#006391", label="update(Name1,Code1)", fontsize=12];
17 -> 17 [color = "#006391", label="update(Name1,Code2)", fontsize=12];
17 -> 17 [color = "#006391", label="update(Name3,Code1)", fontsize=12];
17 -> 16 [color = "#006391", label="update(Name3,Code2)", fontsize=12];

18 [shape=box, color="#99BF38", fontsize=12, penwidth=2, label="db(Name2) = Code2,db(Name3) = Code1"];

18 -> 25 [color = "#006391", label="add(Code1,Name1)", fontsize=12];
18 -> 21 [color = "#006391", label="add(Code2,Name1)", fontsize=12];
18 -> 11 [color = "#006391", label="update(Name2,Code1)", fontsize=12];
18 -> 18 [color = "#006391", label="update(Name2,Code2)", fontsize=12];
18 -> 18 [color = "#006391", label="update(Name3,Code1)", fontsize=12];
18 -> 23 [color = "#006391", label="update(Name3,Code2)", fontsize=12];

19 [shape=box, color="#99BF38", fontsize=12, penwidth=2, label="db(Name1) = Code2,db(Name2) = Code1,db(Name3) = Code2"];

19 -> 14 [color = "#006391", label="update(Name1,Code1)", fontsize=12];
19 -> 19 [color = "#006391", label="update(Name1,Code2)", fontsize=12];
19 -> 19 [color = "#006391", label="update(Name2,Code1)", fontsize=12];
19 -> 20 [color = "#006391", label="update(Name2,Code2)", fontsize=12];
19 -> 26 [color = "#006391", label="update(Name3,Code1)", fontsize=12];
19 -> 19 [color = "#006391", label="update(Name3,Code2)", fontsize=12];
19 -> 0 [color = "#006391", label="reset", fontsize=12];

20 [shape=box, color="#99BF38", fontsize=12, penwidth=2, label="db(Name1) = Code2,db(Name2) = Code2,db(Name3) = Code2"];

20 -> 15 [color = "#006391", label="update(Name1,Code1)", fontsize=12];
20 -> 20 [color = "#006391", label="update(Name1,Code2)", fontsize=12];
20 -> 19 [color = "#006391", label="update(Name2,Code1)", fontsize=12];
20 -> 20 [color = "#006391", label="update(Name2,Code2)", fontsize=12];
20 -> 21 [color = "#006391", label="update(Name3,Code1)", fontsize=12];
20 -> 20 [color = "#006391", label="update(Name3,Code2)", fontsize=12];
20 -> 0 [color = "#006391", label="reset", fontsize=12];

21 [shape=box, color="#99BF38", fontsize=12, penwidth=2, label="db(Name1) = Code2,db(Name2) = Code2,db(Name3) = Code1"];

21 -> 25 [color = "#006391", label="update(Name1,Code1)", fontsize=12];
21 -> 21 [color = "#006391", label="update(Name1,Code2)", fontsize=12];
21 -> 26 [color = "#006391", label="update(Name2,Code1)", fontsize=12];
21 -> 21 [color = "#006391", label="update(Name2,Code2)", fontsize=12];
21 -> 21 [color = "#006391", label="update(Name3,Code1)", fontsize=12];
21 -> 20 [color = "#006391", label="update(Name3,Code2)", fontsize=12];
21 -> 0 [color = "#006391", label="reset", fontsize=12];

22 [shape=box, color="#99BF38", fontsize=12, penwidth=2, label="db(Name1) = Code2,db(Name2) = Code2"];

22 -> 21 [color = "#006391", label="add(Code1,Name3)", fontsize=12];
22 -> 20 [color = "#006391", label="add(Code2,Name3)", fontsize=12];
22 -> 9 [color = "#006391", label="update(Name1,Code1)", fontsize=12];
22 -> 22 [color = "#006391", label="update(Name1,Code2)", fontsize=12];
22 -> 12 [color = "#006391", label="update(Name2,Code1)", fontsize=12];
22 -> 22 [color = "#006391", label="update(Name2,Code2)", fontsize=12];

23 [shape=box, color="#99BF38", fontsize=12, penwidth=2, label="db(Name2) = Code2,db(Name3) = Code2"];

23 -> 15 [color = "#006391", label="add(Code1,Name1)", fontsize=12];
23 -> 20 [color = "#006391", label="add(Code2,Name1)", fontsize=12];
23 -> 13 [color = "#006391", label="update(Name2,Code1)", fontsize=12];
23 -> 23 [color = "#006391", label="update(Name2,Code2)", fontsize=12];
23 -> 18 [color = "#006391", label="update(Name3,Code1)", fontsize=12];
23 -> 23 [color = "#006391", label="update(Name3,Code2)", fontsize=12];

24 [shape=box, color="#99BF38", fontsize=12, penwidth=2, label="db(Name1) = Code1,db(Name2) = Code1,db(Name3) = Code1"];

24 -> 24 [color = "#006391", label="update(Name1,Code1)", fontsize=12];
24 -> 26 [color = "#006391", label="update(Name1,Code2)", fontsize=12];
24 -> 24 [color = "#006391", label="update(Name2,Code1)", fontsize=12];
24 -> 25 [color = "#006391", label="update(Name2,Code2)", fontsize=12];
24 -> 24 [color = "#006391", label="update(Name3,Code1)", fontsize=12];
24 -> 14 [color = "#006391", label="update(Name3,Code2)", fontsize=12];
24 -> 0 [color = "#006391", label="reset", fontsize=12];

25 [shape=box, color="#99BF38", fontsize=12, penwidth=2, label="db(Name1) = Code1,db(Name2) = Code2,db(Name3) = Code1"];

25 -> 25 [color = "#006391", label="update(Name1,Code1)", fontsize=12];
25 -> 21 [color = "#006391", label="update(Name1,Code2)", fontsize=12];
25 -> 24 [color = "#006391", label="update(Name2,Code1)", fontsize=12];
25 -> 25 [color = "#006391", label="update(Name2,Code2)", fontsize=12];
25 -> 25 [color = "#006391", label="update(Name3,Code1)", fontsize=12];
25 -> 15 [color = "#006391", label="update(Name3,Code2)", fontsize=12];
25 -> 0 [color = "#006391", label="reset", fontsize=12];

26 [shape=box, color="#99BF38", fontsize=12, penwidth=2, label="db(Name1) = Code2,db(Name2) = Code1,db(Name3) = Code1"];

26 -> 24 [color = "#006391", label="update(Name1,Code1)", fontsize=12];
26 -> 26 [color = "#006391", label="update(Name1,Code2)", fontsize=12];
26 -> 26 [color = "#006391", label="update(Name2,Code1)", fontsize=12];
26 -> 21 [color = "#006391", label="update(Name2,Code2)", fontsize=12];
26 -> 26 [color = "#006391", label="update(Name3,Code1)", fontsize=12];
26 -> 19 [color = "#006391", label="update(Name3,Code2)", fontsize=12];
26 -> 0 [color = "#006391", label="reset", fontsize=12];

}
